{
  "cordova-plugin-file-transfer": {
    "source": {
      "type": "registry",
      "id": "github:apache/cordova-plugin-file-transfer"
    },
    "is_top_level": true,
    "variables": {}
  },
  "cordova-plugin-whitelist": {
    "source": {
      "type": "registry",
      "id": "cordova-plugin-whitelist@^1.3.4"
    },
    "is_top_level": true,
    "variables": {}
  }
}